filter wecare ampliseq vqsr vcf v01
…
## Warning in check_keys(vcf): The following INFO key occurred more than once: ##GATKCommandLine=<ID=ApplyVQSR

# get data from header and fixed columns
meta_fix <- vcfR2tidy(vcfr, info_only=T)
    
# data frame with meta-information from vcf header
meta.df <- meta_fix$meta
dim(meta.df)

## [1] 23  5

meta.df

## # A tibble: 23 x 5
##    Tag   ID              Number Type    Description                                                                    
##    <chr> <chr>           <chr>  <chr>   <chr>                                                                          
##  1 INFO  AC              A      Integer Allele count in genotypes, for each ALT allele, in the same order as listed    
##  2 INFO  AF              A      Float   Allele Frequency, for each ALT allele, in the same order as listed             
##  3 INFO  AN              1      Integer Total number of alleles in called genotypes                                    
##  4 INFO  BaseQRankSum    1      Float   Z-score from Wilcoxon rank sum test of Alt Vs. Ref base qualities              
##  5 INFO  ClippingRankSum 1      Float   Z-score From Wilcoxon rank sum test of Alt vs. Ref number of hard clipped bases
##  6 INFO  DP              1      Integer Approximate read depth; some reads may have been filtered                      
##  7 INFO  DS              0      Flag    Were any of the samples downsampled?                                           
##  8 INFO  END             1      Integer Stop position of the interval                                                  
##  9 INFO  ExcessHet       1      Float   Phred-scaled p-value for exact test of excess heterozygosity                   
## 10 INFO  FS              1      Float   Phred-scaled p-value using Fisher's exact test to detect strand bias           
## # ... with 13 more rows
…
